[
  {
   "model": "auth.user",
   "pk": 1,
   "fields": {
      "username": "3bartocha"
    }
  },
  {
   "model": "auth.user",
   "pk": 2,
   "fields": {
      "username": "Woloszyn"
    }
  },
  {
   "model": "accesses.userprofile",
   "pk": 1,
   "fields": {
      "user": 1,
      "is_administrator": true
    }
  },
  {
   "model": "accesses.userprofile",
   "pk": 2,
   "fields": {
      "user": 2,
      "is_administrator": true
    }
  }
]
