[
  {
   "model": "other.category",
   "pk": 1,
   "fields": {
      "category_name": "Fizyka"
    }
  },
  {
   "model": "other.category",
   "pk": 2,
   "fields": {
      "category_name": "Kinematyka",
      "parent": 1
    }
  },
  {
   "model": "other.category",
   "pk": 3,
   "fields": {
      "category_name": "Ruch prostoliniowy jednostajny",
      "parent": 2
    }
  },
  {
   "model": "other.category",
   "pk": 4,
   "fields": {
      "category_name": "Ruch prostoliniowy jednostajnie zmienny",
      "parent": 2
    }
  },
  {
   "model": "other.category",
   "pk": 5,
   "fields": {
      "category_name": "Drgania i sprężystość, ruch harmoniczny",
      "parent": 1
    }
  },
  {
   "model": "other.category",
   "pk": 6,
   "fields": {
      "category_name": "Dynamika",
      "parent": 1
    }
  }
]
